%YAML 1.1
%TAG !u! tag:unity3d.com,2011:
--- !u!162 &1
EditorUserSettings:
  m_ObjectHideFlags: 0
  serializedVersion: 4
  m_ConfigSettings:
    RecentlyUsedScenePath-0:
      value: 22424703114646680e0b0227036c6c111b07142f1f2b233e2867083debf42d
      flags: 0
    RecentlyUsedScenePath-1:
      value: 22424703114646680e0b0227036c72111f192b292926237e38271427fb
      flags: 0
    RecentlyUsedScenePath-2:
      value: 200b1b3316501b48420d0330122a103419140d272926322362241c29e7ad336bb2b77bfbe8363371384fed3d08324e0dfd060546d746280a1d02b22f02ec1507028a2bc61fc61a0f842b13c2c150f0aef7d7d8e696fee9d1cac6
      flags: 0
    RecentlyUsedScenePath-3:
      value: 2242470311464676080a05270622532f1418002f3f172022282c5200e1e53a3dadca09cbe8223a2f7717e1351027
      flags: 0
    RecentlyUsedScenePath-4:
      value: 22424703114646680e0b0227036c721f121e1e23292c0b3124272e30e7ee3176f7e93ffdfe
      flags: 0
    vcSharedLogLevel:
      value: 0d5e400f0650
      flags: 0
  m_VCAutomaticAdd: 1
  m_VCDebugCom: 0
  m_VCDebugCmd: 0
  m_VCDebugOut: 0
  m_SemanticMergeMode: 2
  m_VCShowFailedCheckout: 1
  m_VCOverwriteFailedCheckoutAssets: 1
  m_VCProjectOverlayIcons: 1
  m_VCHierarchyOverlayIcons: 1
  m_VCOtherOverlayIcons: 1
  m_VCAllowAsyncUpdate: 1
